<svg width="713" height="713" viewBox="0 0 713 713" fill="none" xmlns="http://www.w3.org/2000/svg">
<g opacity="0.25">
<path opacity="0.25" d="M111.37 567.177C156.024 567.177 192.224 561.572 192.224 554.657C192.224 547.742 156.024 542.137 111.37 542.137C66.7153 542.137 30.5156 547.742 30.5156 554.657C30.5156 561.572 66.7153 567.177 111.37 567.177Z" fill="#64CCA5"/>
<path opacity="0.25" d="M287.467 601.416C332.122 601.416 368.322 595.81 368.322 588.895C368.322 581.981 332.122 576.375 287.467 576.375C242.813 576.375 206.613 581.981 206.613 588.895C206.613 595.81 242.813 601.416 287.467 601.416Z" fill="#64CCA5"/>
<path opacity="0.25" d="M601.628 595.027C646.282 595.027 682.482 589.421 682.482 582.507C682.482 575.592 646.282 569.986 601.628 569.986C556.973 569.986 520.773 575.592 520.773 582.507C520.773 589.421 556.973 595.027 601.628 595.027Z" fill="#64CCA5"/>
</g>
<path d="M390.467 521.93H293.941L306.49 464.733H377.919L390.467 521.93Z" fill="#0C336B"/>
<path d="M529.458 455.065H154.934V238.456C154.934 236.089 155.4 233.746 156.306 231.56C157.212 229.374 158.54 227.388 160.214 225.715C161.888 224.043 163.875 222.716 166.062 221.812C168.248 220.908 170.592 220.443 172.958 220.445H511.448C513.814 220.443 516.156 220.908 518.342 221.812C520.528 222.717 522.515 224.043 524.187 225.716C525.86 227.389 527.187 229.375 528.091 231.561C528.996 233.747 529.46 236.09 529.458 238.456V455.065Z" fill="#2A2C2D"/>
<path d="M511.079 239.383H173.316V441.176H511.079V239.383Z" fill="url(#paint0_linear)"/>
<path d="M154.934 455.065V475.714C154.937 480.492 156.838 485.073 160.218 488.45C163.598 491.827 168.18 493.724 172.958 493.724H511.448C516.225 493.724 520.806 491.827 524.183 488.449C527.561 485.072 529.458 480.491 529.458 475.714V455.065H154.934Z" fill="#D9ECFF"/>
<path d="M433.944 532.953H250.461C250.461 528.619 252.183 524.462 255.247 521.398C258.312 518.333 262.469 516.611 266.803 516.611H417.602C421.937 516.611 426.093 518.333 429.158 521.398C432.223 524.462 433.944 528.619 433.944 532.953V532.953Z" fill="#D9ECFF"/>
<path d="M348.895 475.962C349.769 472.26 347.476 468.55 343.774 467.676C340.072 466.803 336.362 469.095 335.488 472.798C334.615 476.5 336.907 480.209 340.61 481.083C344.312 481.957 348.021 479.664 348.895 475.962Z" fill="#0C336B"/>
<path d="M529.528 312.28H154.961V338.932H529.528V312.28Z" fill="#FDCF01"/>
<path d="M196.104 338.932L177.124 312.28H154.949L173.929 338.932H196.104Z" fill="#2A437D"/>
<path d="M262.627 338.932L243.647 312.28H221.473L240.453 338.932H262.627Z" fill="#2A437D"/>
<path d="M329.147 338.932L310.166 312.28H287.992L306.972 338.932H329.147Z" fill="#2A437D"/>
<path d="M395.674 338.932L376.694 312.28H354.52L373.5 338.932H395.674Z" fill="#2A437D"/>
<path d="M462.193 338.932L443.213 312.28H421.039L440.019 338.932H462.193Z" fill="#2A437D"/>
<path d="M528.717 338.932L509.737 312.28H487.562L506.543 338.932H528.717Z" fill="#2A437D"/>
<path d="M529.531 354.589L154.992 389.055V415.821L529.531 381.355V354.589Z" fill="#FDCF01"/>
<path d="M198.4 411.829L177.067 387.031L154.992 389.056L176.325 413.854L198.4 411.829Z" fill="#2A437D"/>
<path d="M264.648 405.726L243.301 380.928L221.227 382.967L242.56 407.765L264.648 405.726Z" fill="#2A437D"/>
<path d="M330.89 399.637L309.557 374.839L287.469 376.864L308.816 401.662L330.89 399.637Z" fill="#2A437D"/>
<path d="M397.14 393.533L375.793 368.735L353.719 370.76L375.052 395.573L397.14 393.533Z" fill="#2A437D"/>
<path d="M463.379 387.444L442.046 362.646L419.957 364.67L441.29 389.469L463.379 387.444Z" fill="#2A437D"/>
<path d="M529.617 381.341L508.284 356.543L486.195 358.582L507.543 383.38L529.617 381.341Z" fill="#2A437D"/>
<path d="M106.193 458.929L74.6641 552.047C74.6641 559.177 150.242 559.262 150.242 552.047L118.713 458.929C118.26 457.63 117.413 456.505 116.292 455.709C115.17 454.912 113.829 454.484 112.453 454.484C111.077 454.484 109.736 454.912 108.614 455.709C107.493 456.505 106.646 457.63 106.193 458.929V458.929Z" fill="#F26F05"/>
<path d="M97.8379 483.6L91.4922 502.337C105.463 503.193 119.474 503.193 133.445 502.337L127.114 483.6C117.346 484.042 107.606 484.042 97.8379 483.6Z" fill="white"/>
<path d="M86.2705 517.724L79.9961 536.262C101.599 538.315 123.348 538.315 144.95 536.262L138.662 517.724C121.227 519.135 103.706 519.135 86.2705 517.724V517.724Z" fill="white"/>
<path d="M161.933 558.293H63.0117C63.0117 556.368 63.7764 554.522 65.1376 553.161C66.4988 551.8 68.345 551.035 70.2701 551.035H154.675C156.6 551.035 158.446 551.8 159.807 553.161C161.169 554.522 161.933 556.368 161.933 558.293V558.293Z" fill="#DB5E00"/>
<path d="M281.705 490.401L250.176 583.519C250.176 590.649 325.754 590.734 325.754 583.519L294.211 490.401C293.754 489.107 292.908 487.987 291.788 487.195C290.668 486.402 289.33 485.977 287.958 485.977C286.586 485.977 285.248 486.402 284.128 487.195C283.008 487.987 282.161 489.107 281.705 490.401V490.401Z" fill="#F26F05"/>
<path d="M273.365 515.071L267.02 533.809C280.991 534.665 295.001 534.665 308.972 533.809L302.627 515.071C292.911 515.518 283.157 515.518 273.365 515.071Z" fill="white"/>
<path d="M261.8 549.195L255.512 567.733C277.119 569.787 298.873 569.787 320.48 567.733L314.192 549.195C296.756 550.607 279.236 550.607 261.8 549.195Z" fill="white"/>
<path d="M337.449 589.765H238.527C238.527 587.84 239.292 585.994 240.653 584.633C242.014 583.272 243.861 582.507 245.786 582.507H330.191C332.116 582.507 333.962 583.272 335.323 584.633C336.684 585.994 337.449 587.84 337.449 589.765V589.765Z" fill="#DB5E00"/>
<path d="M249.223 210.278C247.412 204.474 239.427 202.463 239.427 202.463L202.351 196.902L177.51 194.834C177.51 194.834 174.658 203.846 178.75 211.718C183.114 220.16 194.736 223.725 219.919 220.63C229.987 219.404 232.211 216.352 233.081 216.495C234.151 219.656 235.586 222.68 237.359 225.507C243.847 235.917 253.829 256.038 253.829 256.038L260.703 257.635L249.223 210.278Z" fill="#022C7D"/>
<path d="M252.143 203.433C247.951 194.449 207.538 196.831 207.538 196.831L199.367 196.66L235.288 202.749C233.415 203.894 231.619 205.161 229.912 206.542C220.372 214.199 208.522 225.08 208.522 225.08L211.089 231.711L250.047 215.868C251.637 214.265 252.692 212.209 253.068 209.983C253.443 207.757 253.12 205.469 252.143 203.433Z" fill="#033BA8"/>
<path d="M208.636 225.137L211.203 231.768C210.987 233.934 210.62 236.083 210.105 238.199C209.641 239.951 209.089 241.679 208.451 243.375L201.406 227.49C201.406 227.49 207.809 224.852 208.636 225.137Z" fill="#033BA8"/>
<path d="M253.83 255.938L260.732 257.635C262.387 259.055 263.941 260.589 265.38 262.227C266.549 263.598 267.648 265.025 268.675 266.505L251.562 263.168C251.562 263.168 253.06 256.466 253.83 255.938Z" fill="#022C7D"/>
<path d="M225.05 154.293C225.05 154.293 227.902 146.878 230.27 144.582C232.637 142.286 236.972 131.092 239.382 135.185C240.825 133.669 241.733 131.722 241.967 129.642C242.202 127.562 241.749 125.462 240.679 123.663C237.571 118.044 233.065 120.24 233.065 120.24C233.065 120.24 240.437 114.693 216.423 124.29C201.521 130.237 185.878 154.407 184.509 161.366C183.14 168.325 185.664 170.222 191.411 170.778C197.158 171.334 225.05 154.293 225.05 154.293Z" fill="#1C3A54"/>
<path d="M223.095 190.998C223.578 191.377 224.137 191.644 224.735 191.783C225.1 191.954 225.501 192.037 225.904 192.025C234.132 193.237 252.913 187.262 252.913 187.262C254.225 187.21 255.529 187.029 256.806 186.72C258.232 186.35 259.658 185.437 260.969 185.551C263.65 185.794 264.278 183.455 263.95 181.829C263.622 180.204 262.823 178.806 261.098 178.649C260.228 178.649 257.718 177.566 255.864 178.136C251.9 179.348 251.13 181.516 250.16 181.701C248.635 182.029 237.826 181.002 230.995 180.104C230.696 178.678 230.995 170.749 229.569 162.236L225.79 158.528C225.79 158.528 218.104 151.584 217.462 162.079C216.949 170.507 218.361 182.357 221.626 188.346C221.79 189.375 222.31 190.314 223.095 190.998V190.998Z" fill="#F4BD8C"/>
<path d="M230.611 172.546C230.611 172.546 228.543 169.694 223.025 170.093C218.632 170.393 217.649 172.532 217.649 172.532C217.649 172.532 214.797 165.33 216.508 159.527C218.49 153.081 221.328 147.719 226.932 153.038C235.288 161.052 230.611 172.546 230.611 172.546Z" fill="#0674FE"/>
<path d="M228.814 163.719C228.771 163.244 228.771 162.767 228.814 162.293C229.641 153.28 219.659 148.133 219.659 148.133C219.659 148.133 213.071 139.862 205.869 144.168C181.627 158.671 176.551 196.545 176.551 196.545C176.551 196.545 182.683 195.29 191.481 198.684C197.864 201.09 204.905 201.09 211.288 198.684C211.288 198.684 215.723 191.74 220.272 183.711C222.117 183.583 223.891 182.95 225.4 181.881C226.909 180.812 228.095 179.348 228.828 177.651C229.815 175.461 230.325 173.085 230.322 170.683C230.32 168.281 229.805 165.907 228.814 163.719V163.719Z" fill="#0674FE"/>
<path d="M195.986 191.084C196.372 191.568 196.859 191.962 197.412 192.239C197.726 192.485 198.092 192.656 198.482 192.738C206.196 195.861 226.888 195.262 226.888 195.262C226.888 195.262 232.164 196.988 234.617 195.89C237.069 194.792 237.811 193.437 237.854 191.783C237.896 190.129 237.469 188.574 235.814 188.018C234.882 187.787 233.914 187.734 232.962 187.861C232.962 187.434 232.834 186.164 230.895 186.278C226.774 186.521 225.504 188.446 224.549 188.417C222.995 188.417 212.727 184.838 206.296 182.357C206.296 180.931 208.449 173.245 209.077 164.646L206.225 160.154C206.225 160.154 200.393 151.598 197.298 161.58C194.817 169.651 193.405 181.544 195.173 188.089C195.068 189.154 195.358 190.219 195.986 191.084Z" fill="#F9CC9F"/>
<path d="M207.626 174.928C207.626 174.928 206.271 171.719 200.838 170.764C196.489 170.008 195.034 171.876 195.034 171.876C195.034 171.876 193.879 164.19 196.988 158.957C200.424 153.153 207.982 152.354 211.091 156.875C216.524 164.817 207.626 174.928 207.626 174.928Z" fill="#0674FE"/>
<path d="M226.873 141.816L221.953 151.997C221.953 151.997 214.823 150.186 213.897 146.436C212.97 142.686 221.768 138.493 221.768 138.493L226.873 141.816Z" fill="#F9CC9F"/>
<path d="M219.945 139.947C220.956 142.424 222.622 144.579 224.765 146.179L226.876 141.816L224.922 136.012L219.945 139.947Z" fill="#F4BD8C"/>
<path d="M240.222 132.332C240.222 132.332 236.514 147.391 229.969 146.592C224.864 146.008 221.77 138.436 221.77 138.436C221.77 138.436 234.703 126.757 240.222 132.332Z" fill="#F9CC9F"/>
<path d="M229.302 135.47C229.066 135.99 228.68 136.427 228.194 136.725C227.707 137.023 227.142 137.169 226.572 137.142C226.002 137.116 225.453 136.92 224.996 136.578C224.539 136.236 224.195 135.766 224.008 135.226C223.822 134.687 223.801 134.104 223.949 133.553C224.097 133.002 224.407 132.508 224.839 132.135C225.271 131.762 225.805 131.527 226.371 131.461C226.938 131.394 227.512 131.499 228.018 131.762C228.679 132.085 229.185 132.656 229.425 133.351C229.666 134.046 229.621 134.808 229.302 135.47V135.47Z" fill="#F9CC9F"/>
<path d="M224.921 136.012C224.921 136.012 216.365 150.272 207.553 149.473C197.271 148.503 193.777 159.983 193.777 159.983C193.777 159.983 197.399 140.689 206.269 140.247C212.65 139.69 218.925 138.266 224.921 136.012V136.012Z" fill="#1C3A54"/>
<path d="M212.472 195.362H226.732L235.516 167.47C235.629 167.107 235.854 166.79 236.159 166.564C236.464 166.338 236.834 166.216 237.213 166.215H272.863C273.137 166.216 273.406 166.28 273.651 166.402C273.896 166.525 274.109 166.701 274.275 166.919C274.44 167.137 274.553 167.39 274.605 167.659C274.657 167.927 274.647 168.204 274.574 168.468L266.66 197.188C266.557 197.567 266.333 197.902 266.021 198.142C265.709 198.381 265.328 198.512 264.935 198.514H210.875L212.472 195.362Z" fill="#022C7D"/>
<path d="M250.206 181.687C249.664 183.213 250.035 184.739 251.033 185.081C252.032 185.423 253.272 184.496 253.885 182.971C254.499 181.445 254.057 179.933 253.058 179.577C252.06 179.22 250.748 180.176 250.206 181.687Z" fill="#FDCF01"/>
<path d="M234.175 112.512C237.395 113.464 240.169 115.534 241.999 118.35C243.828 121.165 244.594 124.541 244.157 127.87C246.453 129.296 247.708 130.722 247.394 131.791C246.738 134.03 239.266 133.802 230.724 131.278C222.182 128.754 215.78 124.904 216.464 122.722C218.66 115.178 226.731 110.301 234.175 112.512Z" fill="#F9BA2D"/>
<path d="M216.88 121.481C222.399 127.185 230.641 129.781 238.427 131.078C246.213 132.376 246.427 129.781 246.441 129.652C247.24 130.451 247.611 131.193 247.425 131.82C246.769 134.059 239.297 133.831 230.755 131.307C222.214 128.783 215.811 124.932 216.495 122.751C216.581 122.266 216.752 121.881 216.88 121.481Z" fill="#FFDF5A"/>
<path d="M241.691 127.713C241.691 127.713 245.27 119.784 239.652 114.779C234.033 109.773 228.543 112.112 228.543 112.112C228.543 112.112 236.129 112.568 238.725 116.547C241.32 120.526 239.167 127.484 239.167 127.484C240.001 127.624 240.845 127.7 241.691 127.713V127.713Z" fill="#FFDF5A"/>
<path d="M548.27 384.878H548.185C547.475 384.692 546.865 384.24 546.48 383.616C546.095 382.992 545.965 382.244 546.117 381.527L546.445 380.101C546.63 379.391 547.082 378.781 547.706 378.396C548.33 378.011 549.079 377.881 549.796 378.033H549.881L548.27 384.878Z" fill="#0674FE"/>
<path d="M564.695 403.957L571.283 391.337L578.071 392.948L568.973 406.41C567.619 405.611 566.121 404.87 564.695 403.957Z" fill="#1C3A54"/>
<path d="M575.616 393.119C565.644 390.912 555.311 390.887 545.328 393.048L550.904 369.505C559.01 375.657 568.201 380.228 577.998 382.981L575.616 393.119Z" fill="#1C3A54"/>
<path d="M580.379 394.233L575.688 393.12L578.083 382.981L582.775 384.094C582.908 384.126 583.033 384.183 583.144 384.264C583.254 384.344 583.348 384.445 583.42 384.562C583.491 384.678 583.539 384.808 583.56 384.943C583.582 385.078 583.577 385.216 583.545 385.349L581.634 393.463C581.602 393.596 581.544 393.721 581.464 393.832C581.384 393.942 581.282 394.036 581.166 394.107C581.049 394.179 580.92 394.227 580.785 394.248C580.65 394.27 580.512 394.264 580.379 394.233V394.233Z" fill="#0674FE"/>
<path d="M588.137 414.339C588.137 414.339 581.121 426.531 578.012 427.743L574.69 406.353C574.69 406.353 576.116 398.068 570.084 393.676C568.258 392.335 561.998 400.007 562.782 403.743C563.567 407.48 566.319 407.551 567.816 411.615C568.886 414.467 566.233 443.557 574.718 446.837C583.203 450.117 592.914 436.513 592.914 436.513L588.137 414.339Z" fill="#F9CC9F"/>
<path d="M568.789 396.186L564.012 405.326L566.151 405.84C566.905 406.013 567.693 405.955 568.414 405.673C569.134 405.39 569.752 404.897 570.186 404.257L571.07 402.931C571.358 402.504 571.54 402.015 571.602 401.505C571.664 400.994 571.604 400.476 571.427 399.993C570.958 398.484 570.037 397.154 568.789 396.186V396.186Z" fill="#1C3A54"/>
<path d="M568.448 395.302C568.448 395.302 570.202 396.3 568.619 399.651C567.036 403.002 565.24 406.025 564.084 405.669C562.929 405.312 563.257 401.391 564.441 399.822C565.625 398.254 568.448 395.302 568.448 395.302Z" fill="#FDC78B"/>
<path d="M593.418 405.726C585.318 413.383 581.51 421.183 577.988 425.59C577.988 425.59 586.901 441.518 593.075 440.905L595.385 417.59L593.418 405.726Z" fill="#0674FE"/>
<path d="M579.355 422.538C581.791 427.403 585.296 431.654 589.608 434.973L587.925 442.103C587.925 442.103 579.74 433.547 575.918 426.631L579.355 422.538Z" fill="#033BA8"/>
<path d="M596.851 569.715L596.651 574.264L588.309 575.491L588.195 568.688L596.851 569.715Z" fill="#FFB164"/>
<path d="M585.955 471.293C585.955 471.293 581.349 505.189 582.518 528.647C583.216 542.878 584.701 557.06 586.967 571.127L597.691 571.584C597.691 571.584 602.796 499.328 605.776 486.024L608.757 472.69L585.955 471.293Z" fill="#022F85"/>
<path d="M599.073 575.947C599.33 578.143 599.815 584.389 598.874 584.403L595.138 584.474C594.467 584.474 594.025 583.747 593.341 583.761C591.758 583.761 590.303 584.56 588.564 584.589L579.209 584.745C576.429 584.745 578.596 580.467 582.346 579.983C586.097 579.498 588.207 572.04 588.464 573.152C588.721 574.264 596.435 573.551 596.507 572.339C596.564 571.427 598.745 573.252 599.073 575.947Z" fill="#022F85"/>
<path d="M617.426 570.628L618.125 575.419L625.882 573.294L625.568 568.76L617.426 570.628Z" fill="#FDC78B"/>
<path d="M585.957 471.293H628.181L631.974 425.861C631.963 419.185 629.303 412.787 624.579 408.071C619.855 403.355 613.452 400.706 606.777 400.706V400.706C592.859 400.706 587.426 411.03 587.426 424.948L585.957 471.293Z" fill="#0674FE"/>
<path d="M600.742 405.155C600.742 410.146 612.82 410.146 612.82 405.155L611.494 394.831H602.068L600.742 405.155Z" fill="#F4BD8C"/>
<path d="M601.905 402.101L605.881 402.789C610.863 403.65 615.601 400.31 616.462 395.328L618.012 386.363C618.874 381.381 615.533 376.643 610.551 375.782L606.574 375.094C601.592 374.233 596.855 377.573 595.994 382.556L594.443 391.52C593.582 396.503 596.922 401.24 601.905 402.101Z" fill="#F9CC9F"/>
<path d="M618.399 376.849L618.527 376.079C618.619 375.561 618.607 375.03 618.493 374.516C618.378 374.003 618.162 373.517 617.859 373.087C617.555 372.657 617.169 372.292 616.723 372.013C616.277 371.733 615.781 371.545 615.261 371.459L612.324 370.945C609.033 373.885 605.449 376.479 601.629 378.688L610.527 380.214C611.155 380.326 611.714 380.68 612.082 381.201C612.45 381.721 612.599 382.366 612.495 382.995C612.408 383.482 612.476 383.985 612.688 384.432C612.9 384.879 613.246 385.249 613.679 385.49V385.49C614.611 386.014 615.358 386.813 615.817 387.778C616.277 388.743 616.427 389.827 616.245 390.881L613.807 395.829C613.63 396.178 613.53 396.561 613.515 396.952C613.5 397.343 613.569 397.733 613.719 398.095C613.869 398.456 614.096 398.781 614.383 399.047C614.671 399.313 615.013 399.513 615.385 399.634C615.757 399.755 616.151 399.794 616.54 399.748C616.929 399.702 617.303 399.572 617.637 399.368C617.971 399.163 618.256 398.889 618.474 398.564C618.692 398.238 618.836 397.87 618.898 397.483L621.736 381.483C621.825 380.96 621.809 380.423 621.69 379.905C621.57 379.388 621.348 378.899 621.038 378.468C620.727 378.036 620.334 377.671 619.881 377.393C619.428 377.115 618.924 376.93 618.399 376.849V376.849Z" fill="#1C3A54"/>
<path d="M614.193 390.353C614.079 391.031 614.168 391.728 614.45 392.355C614.731 392.983 615.193 393.512 615.775 393.878C616.357 394.243 617.035 394.428 617.722 394.408C618.41 394.389 619.076 394.166 619.637 393.769C620.198 393.371 620.628 392.816 620.874 392.173C621.119 391.531 621.169 390.831 621.017 390.16C620.865 389.49 620.517 388.879 620.019 388.406C619.52 387.933 618.892 387.618 618.214 387.501C617.303 387.348 616.368 387.563 615.615 388.097C614.861 388.632 614.35 389.443 614.193 390.353V390.353Z" fill="#F9CC9F"/>
<path d="M628.182 471.293C628.852 471.849 628.966 485.04 624.617 521.317C624.617 521.317 625.273 543.805 626.371 570.714L616.988 571.584C616.988 571.584 605.038 524.768 600.959 506.601C597.366 490.601 596.225 486.523 594.984 471.293H628.182Z" fill="#033BA8"/>
<path d="M585.957 471.293C585.957 471.293 587.597 477.425 599.304 478.223L598.078 471.293H585.957Z" fill="#033BA8"/>
<path d="M628.222 576.104C628.45 578.257 628.849 584.389 627.951 584.403H624.272C623.602 584.403 623.188 583.676 622.518 583.69C620.964 583.69 619.523 584.432 617.812 584.446H608.643C605.905 584.446 608.073 580.268 611.766 579.797C615.459 579.327 617.598 572.083 617.841 573.181C618.083 574.279 625.669 573.651 625.755 572.468C625.812 571.655 627.937 573.437 628.222 576.104Z" fill="#033BA8"/>
<path d="M628.767 478.594C642.142 454.267 638.307 440.092 638.307 440.092L622.392 438.566C622.392 438.566 630.15 453.91 624.417 476.084C623.633 479.15 622.136 478.409 619.298 478.666C616.46 478.922 614.777 481.304 617.373 481.632C619.968 481.96 620.496 482.43 617.687 488.762C614.877 495.093 618.2 495.193 624.046 489.617C629.893 484.042 628.767 478.651 628.767 478.651" fill="#F9CC9F"/>
<path d="M619.454 404.072C631.518 406.924 638.363 426.888 639.974 442.388C628.224 444.342 620.88 438.923 620.88 438.923C615.262 418.93 607.476 401.305 619.454 404.072Z" fill="#0674FE"/>
<path d="M624.585 444.541C624.585 444.541 618.881 444.741 618.525 432.862C618.211 422.452 621.12 408.82 621.847 405.625L622.004 404.941C618.853 402.987 617.555 402.987 617.413 402.987C614.561 410.117 614.204 423.294 614.204 423.294C607.602 424.135 594.411 422.609 594.411 422.609C594.444 416.317 594.887 410.034 595.737 403.8V403.8C594.775 404.116 593.894 404.638 593.155 405.33C592.416 406.022 591.837 406.868 591.459 407.807V408.449C591.26 411.301 590.475 422.623 589.962 432.448C589.606 439.336 588.108 442.131 586.996 443.258L586.098 471.307H625.626C627.289 462.42 626.933 453.272 624.585 444.541V444.541Z" fill="#033BA8"/>
<path d="M620.465 437.497C626.896 438.704 633.47 438.949 639.973 438.224L640.529 443.928C640.529 443.928 628.507 445.497 621.763 442.731L620.465 437.497Z" fill="#033BA8"/>
<path d="M611.169 366.098C607.868 365.541 604.476 366.178 601.602 367.895C598.727 369.611 596.558 372.296 595.483 375.466C592.788 375.752 591.034 376.465 590.849 377.548C590.449 379.844 597.251 382.939 606.036 384.45C614.82 385.962 622.263 385.334 622.663 383.024C623.918 375.352 618.884 367.424 611.169 366.098Z" fill="#F9BA2D"/>
<path d="M622.735 381.797C615.249 384.492 606.735 383.152 599.178 380.885C591.62 378.617 592.561 376.179 592.618 376.036C591.548 376.407 590.893 376.906 590.778 377.548C590.379 379.844 597.181 382.938 605.965 384.45C614.749 385.961 622.193 385.334 622.592 383.024C622.661 382.617 622.708 382.208 622.735 381.797Z" fill="#FFDF5A"/>
<path d="M597.734 376.465C597.734 376.465 598.034 367.737 605.264 365.755C607.175 365.115 609.226 365.011 611.193 365.456C613.159 365.901 614.966 366.878 616.415 368.279C616.415 368.279 609.399 365.328 605.321 367.752C601.242 370.176 600.087 377.377 600.087 377.377C599.281 377.134 598.494 376.829 597.734 376.465V376.465Z" fill="#FFDF5A"/>
<path d="M530.472 360.18C535.033 362.337 539.245 365.168 542.963 368.579C544.133 369.634 542.407 371.359 541.238 370.304C537.664 367.041 533.615 364.339 529.231 362.29C527.862 361.62 529.046 359.509 530.472 360.18Z" fill="white"/>
<path d="M530.828 374.282L538.571 376.578C538.853 376.688 539.084 376.899 539.22 377.169C539.356 377.44 539.387 377.751 539.308 378.043C539.228 378.335 539.043 378.587 538.789 378.751C538.534 378.915 538.228 378.979 537.929 378.931L530.186 376.635C529.904 376.525 529.673 376.314 529.537 376.044C529.401 375.773 529.37 375.462 529.449 375.17C529.529 374.878 529.714 374.626 529.968 374.462C530.223 374.298 530.529 374.234 530.828 374.282V374.282Z" fill="white"/>
<path d="M525.137 386.845L535.761 383.551C537.273 383.081 537.914 385.433 536.417 385.904L525.779 389.198C524.282 389.669 523.64 387.316 525.137 386.845Z" fill="white"/>
<defs>
<linearGradient id="paint0_linear" x1="364.743" y1="199.612" x2="285.243" y2="695.874" gradientUnits="userSpaceOnUse">
<stop stop-color="#0674FE"/>
<stop offset="1" stop-color="#033BA8"/>
</linearGradient>
</defs>
</svg>
